\relax 
\providecommand\hyper@newdestlabel[2]{}
\@writefile{toc}{\contentsline {section}{\numberline {4}Geh\IeC {\"a}useaufbau}{10}{section.4}}
\@writefile{toc}{\contentsline {subsection}{\numberline {4.1}Technische Zeichnungen}{10}{subsection.4.1}}
\@writefile{lof}{\contentsline {figure}{\numberline {9}{\ignorespaces Geh\IeC {\"a}use f\IeC {\"u}r das Display\relax }}{10}{figure.caption.10}}
\newlabel{fig:zeichnunggehauese}{{9}{10}{Gehäuse für das Display\relax }{figure.caption.10}{}}
\@writefile{lof}{\contentsline {figure}{\numberline {10}{\ignorespaces Deckel mit \IeC {\"O}ffnung f\IeC {\"u}r Diplay\relax }}{10}{figure.caption.10}}
\newlabel{fig:zeichnunggehauesedeckel}{{10}{10}{Deckel mit Öffnung für Diplay\relax }{figure.caption.10}{}}
\@writefile{lof}{\contentsline {figure}{\numberline {11}{\ignorespaces Steg als Distanzhalter f\IeC {\"u}r Display zu Shield\relax }}{11}{figure.caption.11}}
\newlabel{fig:zeichnungsteg}{{11}{11}{Steg als Distanzhalter für Display zu Shield\relax }{figure.caption.11}{}}
\@writefile{lof}{\contentsline {figure}{\numberline {12}{\ignorespaces Halterung f\IeC {\"u}r Arduino MEGA 2560\relax }}{11}{figure.caption.11}}
\newlabel{fig:zeichnunghalterungarduino}{{12}{11}{Halterung für Arduino MEGA 2560\relax }{figure.caption.11}{}}
\@writefile{lof}{\contentsline {figure}{\numberline {13}{\ignorespaces Abstandshalter Arduino MEGA 2560/SIM800 zu Halterung\relax }}{11}{figure.caption.11}}
\newlabel{fig:zeichungspacer}{{13}{11}{Abstandshalter Arduino MEGA 2560/SIM800 zu Halterung\relax }{figure.caption.11}{}}
\@setckpt{gehaeuse}{
\setcounter{page}{12}
\setcounter{equation}{0}
\setcounter{enumi}{0}
\setcounter{enumii}{0}
\setcounter{enumiii}{0}
\setcounter{enumiv}{0}
\setcounter{footnote}{0}
\setcounter{mpfootnote}{0}
\setcounter{part}{0}
\setcounter{section}{4}
\setcounter{subsection}{1}
\setcounter{subsubsection}{0}
\setcounter{paragraph}{0}
\setcounter{subparagraph}{0}
\setcounter{figure}{13}
\setcounter{table}{0}
\setcounter{parentequation}{0}
\setcounter{r@tfl@t}{0}
\setcounter{Item}{0}
\setcounter{Hfootnote}{0}
\setcounter{bookmark@seq@number}{11}
\setcounter{lstnumber}{1}
\setcounter{ContinuedFloat}{0}
\setcounter{section@level}{2}
\setcounter{lstlisting}{0}
}
