\relax 
\providecommand\hyper@newdestlabel[2]{}
\@writefile{toc}{\contentsline {section}{\numberline {3}Hardwarekomponenten}{5}{section.3}}
\newlabel{sec:hwcomp}{{3}{5}{Hardwarekomponenten}{section.3}{}}
\@writefile{toc}{\contentsline {subsection}{\numberline {3.1}Arduino}{5}{subsection.3.1}}
\@writefile{lof}{\contentsline {figure}{\numberline {2}{\ignorespaces Draufsicht auf das Arduino Due Board\relax }}{5}{figure.caption.4}}
\newlabel{fig:arduinodue}{{2}{5}{Draufsicht auf das Arduino Due Board\relax }{figure.caption.4}{}}
\@writefile{toc}{\contentsline {subsection}{\numberline {3.2}Ultraschallsensoren}{6}{subsection.3.2}}
\@writefile{lof}{\contentsline {figure}{\numberline {3}{\ignorespaces Ultraschallmodul HC-SR04 \relax }}{6}{figure.caption.5}}
\newlabel{fig:hc-sr04}{{3}{6}{Ultraschallmodul HC-SR04 \relax }{figure.caption.5}{}}
\@writefile{toc}{\contentsline {subsection}{\numberline {3.3}SIM800L GSM Modul}{7}{subsection.3.3}}
\@writefile{lof}{\contentsline {figure}{\numberline {4}{\ignorespaces Oberseite des SIM800L EVB\relax }}{7}{figure.caption.6}}
\newlabel{fig:sim8001}{{4}{7}{Oberseite des SIM800L EVB\relax }{figure.caption.6}{}}
\@writefile{lof}{\contentsline {figure}{\numberline {5}{\ignorespaces Unterseite des SIM800L EVB\relax }}{7}{figure.caption.6}}
\newlabel{fig:sim8002}{{5}{7}{Unterseite des SIM800L EVB\relax }{figure.caption.6}{}}
\@writefile{toc}{\contentsline {subsection}{\numberline {3.4}3,2" TFT LCD Display}{8}{subsection.3.4}}
\@writefile{lof}{\contentsline {figure}{\numberline {6}{\ignorespaces 3,2" TFT LCD Display und Shield\relax }}{8}{figure.caption.7}}
\newlabel{fig:display}{{6}{8}{3,2" TFT LCD Display und Shield\relax }{figure.caption.7}{}}
\@writefile{toc}{\contentsline {subsection}{\numberline {3.5}Gyroskop}{8}{subsection.3.5}}
\@writefile{lof}{\contentsline {figure}{\numberline {7}{\ignorespaces 3 Achsen Gyrosensormodul MPU 6050\relax }}{8}{figure.caption.8}}
\newlabel{fig:gyro}{{7}{8}{3 Achsen Gyrosensormodul MPU 6050\relax }{figure.caption.8}{}}
\@writefile{toc}{\contentsline {subsection}{\numberline {3.6}3D Drucker}{9}{subsection.3.6}}
\@writefile{lof}{\contentsline {figure}{\numberline {8}{\ignorespaces 3D Filamentdrucker ANET A8\relax }}{9}{figure.caption.9}}
\newlabel{fig:aneta8}{{8}{9}{3D Filamentdrucker ANET A8\relax }{figure.caption.9}{}}
\@setckpt{hardware}{
\setcounter{page}{10}
\setcounter{equation}{0}
\setcounter{enumi}{0}
\setcounter{enumii}{0}
\setcounter{enumiii}{0}
\setcounter{enumiv}{0}
\setcounter{footnote}{0}
\setcounter{mpfootnote}{0}
\setcounter{part}{0}
\setcounter{section}{3}
\setcounter{subsection}{6}
\setcounter{subsubsection}{0}
\setcounter{paragraph}{0}
\setcounter{subparagraph}{0}
\setcounter{figure}{8}
\setcounter{table}{0}
\setcounter{parentequation}{0}
\setcounter{r@tfl@t}{0}
\setcounter{Item}{0}
\setcounter{Hfootnote}{0}
\setcounter{bookmark@seq@number}{9}
\setcounter{lstnumber}{1}
\setcounter{ContinuedFloat}{0}
\setcounter{section@level}{2}
\setcounter{lstlisting}{0}
}
