\relax 
\providecommand\hyper@newdestlabel[2]{}
\providecommand*\new@tpo@label[2]{}
\catcode `"\active 
\catcode 95\active
\providecommand\HyperFirstAtBeginDocument{\AtBeginDocument}
\HyperFirstAtBeginDocument{\ifx\hyper@anchor\@undefined
\global\let\oldcontentsline\contentsline
\gdef\contentsline#1#2#3#4{\oldcontentsline{#1}{#2}{#3}}
\global\let\oldnewlabel\newlabel
\gdef\newlabel#1#2{\newlabelxx{#1}#2}
\gdef\newlabelxx#1#2#3#4#5#6{\oldnewlabel{#1}{{#2}{#3}}}
\AtEndDocument{\ifx\hyper@anchor\@undefined
\let\contentsline\oldcontentsline
\let\newlabel\oldnewlabel
\fi}
\fi}
\global\let\hyper@last\relax 
\gdef\HyperFirstAtBeginDocument#1{#1}
\providecommand\HyField@AuxAddToFields[1]{}
\providecommand\HyField@AuxAddToCoFields[2]{}
\providecommand*\tocstyle@set@width[4]{}
\babel@aux{ngerman}{}
\tocstyle@set@width {unum}{toc}{}{20.88867pt}
\tocstyle@set@width {num}{toc}{1}{13.5pt}
\tocstyle@set@width {skip}{toc}{1}{0.0pt}
\tocstyle@set@width {num}{toc}{2}{20.88867pt}
\tocstyle@set@width {skip}{toc}{2}{13.5pt}
\@input{motivation.aux}
\@input{system.aux}
\@input{hardware.aux}
\@input{gehaeuse.aux}
\@input{software.aux}
\@input{zusammenfassung.aux}
