\relax 
\providecommand\hyper@newdestlabel[2]{}
\@writefile{toc}{\contentsline {section}{\numberline {5}Software}{12}{section.5}}
\@writefile{toc}{\contentsline {subsection}{\numberline {5.1}Programmablaufplan}{12}{subsection.5.1}}
\@writefile{lof}{\contentsline {figure}{\numberline {14}{\ignorespaces Programmablaufplan\relax }}{12}{figure.caption.12}}
\newlabel{fig:PAP}{{14}{12}{Programmablaufplan\relax }{figure.caption.12}{}}
\@writefile{toc}{\contentsline {subsection}{\numberline {5.2}Arduino Programm}{13}{subsection.5.2}}
\newlabel{sec:arduinoSoftware}{{5.2}{13}{Arduino Programm}{subsection.5.2}{}}
\@writefile{lol}{\contentsline {lstlisting}{parkMonitoring.ino}{13}{lstlisting.-1}}
\@writefile{lol}{\contentsline {lstlisting}{parkMonitoring.h}{15}{lstlisting.-2}}
\@setckpt{software}{
\setcounter{page}{21}
\setcounter{equation}{0}
\setcounter{enumi}{0}
\setcounter{enumii}{0}
\setcounter{enumiii}{0}
\setcounter{enumiv}{0}
\setcounter{footnote}{0}
\setcounter{mpfootnote}{0}
\setcounter{part}{0}
\setcounter{section}{5}
\setcounter{subsection}{2}
\setcounter{subsubsection}{0}
\setcounter{paragraph}{0}
\setcounter{subparagraph}{0}
\setcounter{figure}{14}
\setcounter{table}{0}
\setcounter{parentequation}{0}
\setcounter{r@tfl@t}{0}
\setcounter{Item}{0}
\setcounter{Hfootnote}{0}
\setcounter{bookmark@seq@number}{14}
\setcounter{lstnumber}{200}
\setcounter{ContinuedFloat}{0}
\setcounter{section@level}{2}
\setcounter{lstlisting}{0}
}
