\relax 
\providecommand\hyper@newdestlabel[2]{}
\@writefile{toc}{\contentsline {section}{\numberline {6}Fazit}{21}{section.6}}
\@writefile{toc}{\contentsline {subsection}{\numberline {6.1}Probleme}{21}{subsection.6.1}}
\newlabel{sec:probleme}{{6.1}{21}{Probleme}{subsection.6.1}{}}
\@writefile{toc}{\contentsline {subsection}{\numberline {6.2}Ausblick}{21}{subsection.6.2}}
\newlabel{sec:ausblick}{{6.2}{21}{Ausblick}{subsection.6.2}{}}
\@setckpt{zusammenfassung}{
\setcounter{page}{23}
\setcounter{equation}{0}
\setcounter{enumi}{0}
\setcounter{enumii}{0}
\setcounter{enumiii}{0}
\setcounter{enumiv}{0}
\setcounter{footnote}{0}
\setcounter{mpfootnote}{0}
\setcounter{part}{0}
\setcounter{section}{6}
\setcounter{subsection}{2}
\setcounter{subsubsection}{0}
\setcounter{paragraph}{0}
\setcounter{subparagraph}{0}
\setcounter{figure}{14}
\setcounter{table}{0}
\setcounter{parentequation}{0}
\setcounter{r@tfl@t}{0}
\setcounter{Item}{0}
\setcounter{Hfootnote}{0}
\setcounter{bookmark@seq@number}{17}
\setcounter{lstnumber}{200}
\setcounter{ContinuedFloat}{0}
\setcounter{section@level}{2}
\setcounter{lstlisting}{0}
}
